第6章: forcats & purrr 因子とリスト操作の魔術 | TIDYVERSE完全マスター
…
                            # 製品カテゴリを頻度でソート
                            product_category = fct_infreq(product_category),
                            
                            # 年齢グループを論理的順序に
                            age_group = fct_relevel(age_group, "18-24", "25-34", "35-44", "45-54", "55+")
                          )

                        📊 データ確認結果

# A tibble: 1,000 × 5
   customer_id satisfaction product_category age_group purchase_amount
         <int> <ord>        <fct>            <fct>               <dbl>
 1           1 満足         スマートフォン   25-34               52000
 2           2 普通         ラップトップ     35-44               48000
 3           3 非常に満足   タブレット       18-24               65000
 4           4 満足         ヘッドフォン     45-54               43000
 5           5 普通         スマートウォッチ 55+                 39000
# … with 995 more rows
…
