第9章: tibble - モダンなデータフレーム操作 | Tidyverse完全マスター
…
最初の3行のみ表示:
# A tibble: 100 × 7
      id category value_1 value_2 value_3 long_text                      date      
   <int> <chr>      <dbl>   <dbl>   <dbl> <chr>                          <date>    
 1     1 A           44.4    87.3    24.4 これは非常に長いテキストです1番… 2023-04-25
 2     2 D           47.7    98.2    26.2 これは非常に長いテキストです2番… 2023-06-24
 3     3 E           65.6   116.     25.3 これは非常に長いテキストです3番… 2023-03-12
# ℹ 97 more rows
…
